…
We can also directly access the coefficients for a model using `coef` and tidy the output with `tidy`. Here, we check out the top 10 largest absolute coefficient terms when using the smallest and largest lambda values. We see that regardless of a large or small penalty parameter, working overtime and being a Sales Rep has the largest positive influence on the probability of attrition.  Whereas being a Research Director and having high job involvement (among others) are the strongest influencers for reducing the probability of attrition.


```r
# lambdas applied to penalty parameter
ridge$lambda %>% head()
## [1] 86.49535 78.81134 71.80996 65.43056 59.61789 54.32160

# small lambda results in large coefficients
coef(ridge)[, 100] %>% 
  tidy() %>% 
  arrange(desc(abs(x)))
## # A tibble: 58 x 2
##    names                                 x
##    <chr>                             <dbl>
##  1 OverTimeYes                       1.68 
##  2 JobInvolvementVery_High          -1.42 
##  3 JobRoleSales_Representative       1.35 
##  4 (Intercept)                       1.21 
##  5 BusinessTravelTravel_Frequently   1.17 
##  6 JobRoleResearch_Director         -1.05 
##  7 JobInvolvementHigh               -0.974
##  8 EnvironmentSatisfactionVery_High -0.951
##  9 JobSatisfactionVery_High         -0.932
## 10 WorkLifeBalanceBetter            -0.908
## # ... with 48 more rows

# large lambda results in small coefficients
coef(ridge)[, 1] %>% 
  tidy() %>% 
  arrange(desc(abs(x))) 
## # A tibble: 58 x 2
##    names                                   x
##    <chr>                               <dbl>
##  1 (Intercept)                     -1.65e+ 0
##  2 JobRoleSales_Representative      2.62e-37
##  3 OverTimeYes                      1.95e-37
##  4 JobRoleResearch_Director        -1.55e-37
##  5 MaritalStatusSingle              1.39e-37
##  6 JobRoleManager                  -1.24e-37
##  7 BusinessTravelTravel_Frequently  1.16e-37
##  8 JobRoleLaboratory_Technician     9.16e-38
##  9 JobRoleManufacturing_Director   -8.95e-38
## 10 JobInvolvementVery_High         -7.66e-38
## # ... with 48 more rows
```
…
<div class="figure" style="text-align: center">
<img src="images/glmnet-class-multi-ridge-coef.png" alt="Coefficients for each multinomial response as $\lambda$ grows from  $0 \rightarrow \infty$." width="100%" height="100%" />
<p class="caption">(\#fig:glmnet-class-multi-ridge-coef)Coefficients for each multinomial response as $\lambda$ grows from  $0 \rightarrow \infty$.</p>
</div>

Also, the coefficients are stored in a list separated by the response category.  We can access these coefficients in a similar manner as we did the regression and binary classification coefficients; however, we need to index for the response category of interest.  For example, the following gets the coefficients for response category "9" (note the indexing: <code>coef(ridge)$`9`</code>).


```r
# coefficients for response "9" with small lambda penalty
coef(ridge)$`9`[, 100] %>% 
  tidy() %>% 
  arrange(desc(abs(x)))
## # A tibble: 785 x 2
##    names       x
##    <chr>   <dbl>
##  1 ""    -0.428 
##  2 V170  -0.0762
##  3 V753   0.0505
##  4 V703   0.0345
##  5 V780  -0.0317
##  6 V732   0.0264
##  7 V726   0.0246
##  8 V505   0.0220
##  9 V421  -0.0147
## 10 V225  -0.0139
## # ... with 775 more rows

# coefficients for response "9" with small lambda penalty
coef(ridge)$`9`[, 1] %>% 
  tidy() %>% 
  arrange(desc(abs(x)))
## # A tibble: 785 x 2
##    names         x
##    <chr>     <dbl>
##  1 ""    -7.12e- 3
##  2 V753   3.18e-38
##  3 V732   2.39e-38
##  4 V170  -1.69e-38
##  5 V16   -1.11e-38
##  6 V703   8.13e-39
##  7 V533  -6.68e-39
##  8 V505   6.46e-39
##  9 V33   -6.26e-39
## 10 V752   4.64e-39
## # ... with 775 more rows
```
…
<div class="figure" style="text-align: center">
<img src="images/glmnet-multi-vip.png" alt="Top 10 most influential predictors for each multinomial response. Predictors with coefficients to the right of zero (blue) increase the probability of that response whereas predictors with coefficients to the left of zero (red) decrease the probability of that response." width="100%" height="100%" />
<p class="caption">(\#fig:glmnet-multi-vip-plot)Top 10 most influential predictors for each multinomial response. Predictors with coefficients to the right of zero (blue) increase the probability of that response whereas predictors with coefficients to the left of zero (red) decrease the probability of that response.</p>
</div>

The above plot identifies thse variables most influential for each given response category.  However, we also want to understand which variables are influential across all, or most, of the responses.  The below identifies three predictors (`V375`, `V515`, `V572`) that have non-zero coefficients for all the response categories.  Plotting these variables allows us to see how the strength and direction of the signal varies across the response categories.  These features represent pixels in the images that are used by each handwritten number.


```r
# predictors that are influential across all or many of the responses
vi %>%
  count(feature) %>%
  arrange(desc(n))
## # A tibble: 653 x 2
##    feature     n
##    <chr>   <int>
##  1 V375       10
##  2 V515       10
##  3 V572       10
##  4 V402        9
##  5 V239        8
##  6 V268        8
##  7 V301        8
##  8 V324        8
##  9 V326        8
## 10 V353        8
## # ... with 643 more rows
…
